…
A tibble is quite different to a data frame in terms of printing or subsetting and it is simply a nicer way to create a data frame. It never adjusts the names of the variables of changes the input type. Check this article for more details.

Now let's view the dataset:



```r
starwars
```

```
## # A tibble: 87 x 13
##    name  height  mass hair_color skin_color eye_color birth_year gender
##    <chr>  <int> <dbl> <chr>      <chr>      <chr>          <dbl> <chr> 
##  1 Luke…    172    77 blond      fair       blue            19   male  
##  2 C-3PO    167    75 <NA>       gold       yellow         112   <NA>  
##  3 R2-D2     96    32 <NA>       white, bl… red             33   <NA>  
##  4 Dart…    202   136 none       white      yellow          41.9 male  
##  5 Leia…    150    49 brown      light      brown           19   female
##  6 Owen…    178   120 brown, gr… light      blue            52   male  
##  7 Beru…    165    75 brown      light      blue            47   female
##  8 R5-D4     97    32 <NA>       white, red red             NA   <NA>  
##  9 Bigg…    183    84 black      light      brown           24   male  
## 10 Obi-…    182    77 auburn, w… fair       blue-gray       57   male  
## # … with 77 more rows, and 5 more variables: homeworld <chr>, species <chr>,
## #   films <list>, vehicles <list>, starships <list>
```

A tibble also displays just the top 10 rows and displays it on my Rstudio console.A dplyr equivalent for a data frame is the following command which also makes it easier to display the data


```r
dplyr::tbl_df(starwars)
```

```
## # A tibble: 87 x 13
##    name  height  mass hair_color skin_color eye_color birth_year gender
##    <chr>  <int> <dbl> <chr>      <chr>      <chr>          <dbl> <chr> 
##  1 Luke…    172    77 blond      fair       blue            19   male  
##  2 C-3PO    167    75 <NA>       gold       yellow         112   <NA>  
##  3 R2-D2     96    32 <NA>       white, bl… red             33   <NA>  
##  4 Dart…    202   136 none       white      yellow          41.9 male  
##  5 Leia…    150    49 brown      light      brown           19   female
##  6 Owen…    178   120 brown, gr… light      blue            52   male  
##  7 Beru…    165    75 brown      light      blue            47   female
##  8 R5-D4     97    32 <NA>       white, red red             NA   <NA>  
##  9 Bigg…    183    84 black      light      brown           24   male  
## 10 Obi-…    182    77 auburn, w… fair       blue-gray       57   male  
## # … with 77 more rows, and 5 more variables: homeworld <chr>, species <chr>,
## #   films <list>, vehicles <list>, starships <list>
```
…
And look who we have here! Han Solo and Chewbacca.

Here is a column-wise manipulation:


```r
dplyr::select(starwars, name, species, birth_year)
```

```
## # A tibble: 87 x 3
##    name               species birth_year
##    <chr>              <chr>        <dbl>
##  1 Luke Skywalker     Human         19  
##  2 C-3PO              Droid        112  
##  3 R2-D2              Droid         33  
##  4 Darth Vader        Human         41.9
##  5 Leia Organa        Human         19  
##  6 Owen Lars          Human         52  
##  7 Beru Whitesun lars Human         47  
##  8 R5-D4              Droid         NA  
##  9 Biggs Darklighter  Human         24  
## 10 Obi-Wan Kenobi     Human         57  
## # … with 77 more rows
```
…
We can also create new variables. Say I want to create a BMI value. For the sake of simplicity let's ignore gender and set the formula to be weight / height(squared).


```r
starwars %>%
mutate(bmi = mass/(height^2)) %>%
arrange(desc(bmi)) %>%
select(name, species, height, mass, bmi)
```

```
## # A tibble: 87 x 5
##    name                  species        height  mass     bmi
##    <chr>                 <chr>           <int> <dbl>   <dbl>
##  1 Jabba Desilijic Tiure Hutt              175  1358 0.0443 
##  2 Dud Bolt              Vulptereen         94    45 0.00509
##  3 Yoda                  Yoda's species     66    17 0.00390
##  4 Owen Lars             Human             178   120 0.00379
##  5 IG-88                 Droid             200   140 0.0035 
##  6 R2-D2                 Droid              96    32 0.00347
##  7 Grievous              Kaleesh           216   159 0.00341
##  8 R5-D4                 Droid              97    32 0.00340
##  9 Jek Tono Porkins      Human             180   110 0.00340
## 10 Darth Vader           Human             202   136 0.00333
## # … with 77 more rows
```

We can also reshape some results using tidyr. Here is an example to append species and name.


```r
starwars %>%
unite(name_species, name, species) %>%
select(name_species)
```

```
## # A tibble: 87 x 1
##    name_species            
##    <chr>                   
##  1 Luke Skywalker_Human    
##  2 C-3PO_Droid             
##  3 R2-D2_Droid             
##  4 Darth Vader_Human       
##  5 Leia Organa_Human       
##  6 Owen Lars_Human         
##  7 Beru Whitesun lars_Human
##  8 R5-D4_Droid             
##  9 Biggs Darklighter_Human 
## 10 Obi-Wan Kenobi_Human    
## # … with 77 more rows
```
